[gd_scene load_steps=13 format=3 uid="uid://8mh1elwx31yq"]

[ext_resource type="Script" path="res://addons/resource_wrangler/src/nodes/rwnode.gd" id="1_bxpwl"]
[ext_resource type="Texture2D" uid="uid://nmmc48fxkepa" path="res://addons/resource_wrangler/assets/resource_wrangler_icon_32x32.small.svg" id="2_fjfpw"]

[sub_resource type="StyleBoxFlat" id="StyleBoxFlat_i88oe"]
bg_color = Color(0.24, 0.26, 0.28, 1)
border_width_bottom = 9
corner_radius_bottom_right = 4
corner_radius_bottom_left = 4
corner_detail = 1
expand_margin_top = 2.0
expand_margin_bottom = 4.0
anti_aliasing = false

[sub_resource type="StyleBoxFlat" id="StyleBoxFlat_a8vhd"]
bg_color = Color(0.182, 0.532, 0.7, 1)
border_width_bottom = 9
corner_radius_bottom_right = 4
corner_radius_bottom_left = 4
corner_detail = 1
expand_margin_top = 2.0
expand_margin_bottom = 4.0
anti_aliasing = false

[sub_resource type="StyleBoxFlat" id="StyleBoxFlat_5mmtc"]
content_margin_left = 2.0
content_margin_top = 2.0
content_margin_right = 2.0
content_margin_bottom = 2.0
bg_color = Color(0.12, 0.13, 0.14, 1)
corner_detail = 1
expand_margin_bottom = 2.0

[sub_resource type="StyleBoxFlat" id="StyleBoxFlat_n53qd"]
content_margin_left = 2.0
content_margin_top = 2.0
content_margin_right = 2.0
content_margin_bottom = 2.0
bg_color = Color(0.182, 0.532, 0.7, 1)
corner_detail = 1
expand_margin_bottom = 2.0

[sub_resource type="Image" id="Image_psysb"]
data = {
"data": PackedByteArray(255, 255, 255, 0, 255, 255, 255, 0, 255, 255, 255, 0, 255, 255, 255, 0, 255, 255, 255, 0, 255, 255, 255, 0, 255, 255, 255, 0, 255, 255, 255, 0, 255, 255, 255, 0, 255, 255, 255, 0, 255, 255, 255, 0, 255, 255, 255, 0, 255, 255, 255, 0, 255, 255, 255, 0, 255, 255, 255, 0, 255, 255, 255, 0, 255, 255, 255, 0, 255, 255, 255, 0, 255, 93, 93, 255, 255, 93, 93, 255, 255, 93, 93, 255, 255, 93, 93, 255, 255, 93, 93, 255, 255, 93, 93, 255, 255, 93, 93, 255, 255, 255, 255, 0, 255, 92, 92, 127, 255, 255, 255, 0, 255, 255, 255, 0, 255, 255, 255, 0, 255, 255, 255, 0, 255, 255, 255, 0, 255, 255, 255, 0, 255, 255, 255, 0, 255, 93, 93, 255, 255, 93, 93, 255, 255, 93, 93, 255, 255, 93, 93, 255, 255, 93, 93, 255, 255, 93, 93, 255, 255, 93, 93, 255, 255, 255, 255, 0, 255, 93, 93, 255, 255, 92, 92, 127, 255, 255, 255, 0, 255, 255, 255, 0, 255, 255, 255, 0, 255, 255, 255, 0, 255, 255, 255, 0, 255, 255, 255, 0, 255, 93, 93, 255, 255, 93, 93, 255, 255, 93, 93, 255, 255, 93, 93, 255, 255, 93, 93, 255, 255, 93, 93, 255, 255, 93, 93, 255, 255, 255, 255, 0, 255, 93, 93, 255, 255, 93, 93, 255, 255, 92, 92, 127, 255, 255, 255, 0, 255, 255, 255, 0, 255, 255, 255, 0, 255, 255, 255, 0, 255, 255, 255, 0, 255, 93, 93, 255, 255, 93, 93, 255, 255, 93, 93, 255, 255, 93, 93, 255, 255, 93, 93, 255, 255, 93, 93, 255, 255, 93, 93, 255, 255, 255, 255, 0, 255, 93, 93, 255, 255, 93, 93, 255, 255, 93, 93, 255, 255, 92, 92, 127, 255, 255, 255, 0, 255, 255, 255, 0, 255, 255, 255, 0, 255, 255, 255, 0, 255, 93, 93, 255, 255, 93, 93, 255, 255, 93, 93, 255, 255, 93, 93, 255, 255, 93, 93, 255, 255, 93, 93, 255, 255, 93, 93, 255, 255, 255, 255, 0, 255, 255, 255, 0, 255, 255, 255, 0, 255, 255, 255, 0, 255, 255, 255, 0, 255, 255, 255, 0, 255, 255, 255, 0, 255, 255, 255, 0, 255, 255, 255, 0, 255, 93, 93, 255, 255, 93, 93, 255, 255, 93, 93, 255, 255, 93, 93, 255, 255, 93, 93, 255, 255, 93, 93, 255, 255, 93, 93, 255, 255, 93, 93, 255, 255, 93, 93, 255, 255, 93, 93, 255, 255, 93, 93, 255, 255, 93, 93, 255, 255, 255, 255, 0, 255, 255, 255, 0, 255, 255, 255, 0, 255, 255, 255, 0, 255, 93, 93, 255, 255, 93, 93, 255, 255, 93, 93, 255, 255, 93, 93, 255, 255, 93, 93, 255, 255, 93, 93, 255, 255, 93, 93, 255, 255, 93, 93, 255, 255, 93, 93, 255, 255, 93, 93, 255, 255, 93, 93, 255, 255, 93, 93, 255, 255, 255, 255, 0, 255, 255, 255, 0, 255, 255, 255, 0, 255, 255, 255, 0, 255, 93, 93, 231, 255, 90, 90, 54, 255, 94, 94, 57, 255, 93, 93, 233, 255, 93, 93, 255, 255, 93, 93, 255, 255, 93, 93, 231, 255, 90, 90, 54, 255, 94, 94, 57, 255, 93, 93, 233, 255, 93, 93, 255, 255, 93, 93, 255, 255, 255, 255, 0, 255, 255, 255, 0, 255, 255, 255, 0, 255, 255, 255, 0, 255, 91, 91, 42, 255, 255, 255, 0, 255, 255, 255, 0, 255, 91, 91, 42, 255, 93, 93, 233, 255, 92, 92, 232, 255, 93, 93, 41, 255, 255, 255, 0, 255, 255, 255, 0, 255, 91, 91, 42, 255, 93, 93, 233, 255, 92, 92, 232, 255, 255, 255, 0, 255, 255, 255, 0, 255, 255, 255, 0, 255, 255, 255, 0, 255, 255, 255, 0, 255, 91, 91, 45, 255, 93, 93, 44, 255, 255, 255, 0, 255, 91, 91, 42, 255, 91, 91, 42, 255, 255, 255, 0, 255, 91, 91, 45, 255, 93, 93, 44, 255, 255, 255, 0, 255, 91, 91, 42, 255, 91, 91, 42, 255, 255, 255, 0, 255, 255, 255, 0, 255, 255, 255, 0, 255, 255, 255, 0, 255, 91, 91, 45, 255, 92, 92, 235, 255, 92, 92, 234, 255, 89, 89, 43, 255, 255, 255, 0, 255, 255, 255, 0, 255, 91, 91, 45, 255, 92, 92, 235, 255, 92, 92, 234, 255, 89, 89, 43, 255, 255, 255, 0, 255, 255, 255, 0, 255, 255, 255, 0, 255, 255, 255, 0, 255, 255, 255, 0, 255, 255, 255, 0, 255, 92, 92, 235, 255, 93, 93, 255, 255, 93, 93, 255, 255, 93, 93, 233, 255, 91, 91, 59, 255, 92, 92, 61, 255, 92, 92, 235, 255, 93, 93, 255, 255, 93, 93, 255, 255, 93, 93, 233, 255, 91, 91, 59, 255, 92, 92, 61, 255, 255, 255, 0, 255, 255, 255, 0, 255, 255, 255, 0, 255, 255, 255, 0, 255, 93, 93, 255, 255, 93, 93, 255, 255, 93, 93, 255, 255, 93, 93, 255, 255, 93, 93, 255, 255, 93, 93, 255, 255, 93, 93, 255, 255, 93, 93, 255, 255, 93, 93, 255, 255, 93, 93, 255, 255, 93, 93, 255, 255, 93, 93, 255, 255, 255, 255, 0, 255, 255, 255, 0, 255, 255, 255, 0, 255, 255, 255, 0, 255, 93, 93, 255, 255, 93, 93, 255, 255, 93, 93, 255, 255, 93, 93, 255, 255, 93, 93, 255, 255, 93, 93, 255, 255, 93, 93, 255, 255, 93, 93, 255, 255, 93, 93, 255, 255, 93, 93, 255, 255, 93, 93, 255, 255, 93, 93, 255, 255, 255, 255, 0, 255, 255, 255, 0, 255, 255, 255, 0, 255, 255, 255, 0, 255, 255, 255, 0, 255, 255, 255, 0, 255, 255, 255, 0, 255, 255, 255, 0, 255, 255, 255, 0, 255, 255, 255, 0, 255, 255, 255, 0, 255, 255, 255, 0, 255, 255, 255, 0, 255, 255, 255, 0, 255, 255, 255, 0, 255, 255, 255, 0, 255, 255, 255, 0, 255, 255, 255, 0),
"format": "RGBA8",
"height": 16,
"mipmaps": false,
"width": 16
}

[sub_resource type="ImageTexture" id="ImageTexture_cb5as"]
image = SubResource("Image_psysb")

[sub_resource type="Image" id="Image_d81ob"]
data = {
"data": PackedByteArray(255, 255, 255, 0, 255, 255, 255, 0, 255, 255, 255, 0, 255, 255, 255, 0, 255, 255, 255, 0, 255, 255, 255, 0, 255, 255, 255, 0, 255, 255, 255, 0, 255, 255, 255, 0, 255, 255, 255, 0, 255, 255, 255, 0, 255, 255, 255, 0, 255, 255, 255, 0, 255, 255, 255, 0, 255, 255, 255, 0, 255, 255, 255, 0, 255, 255, 255, 0, 255, 255, 255, 0, 255, 93, 93, 255, 255, 93, 93, 255, 255, 93, 93, 255, 255, 93, 93, 255, 255, 93, 93, 255, 255, 93, 93, 255, 255, 93, 93, 255, 255, 255, 255, 0, 255, 94, 94, 127, 255, 255, 255, 0, 255, 255, 255, 0, 255, 255, 255, 0, 255, 255, 255, 0, 255, 255, 255, 0, 255, 255, 255, 0, 255, 255, 255, 0, 255, 93, 93, 255, 255, 93, 93, 255, 255, 93, 93, 255, 255, 93, 93, 255, 255, 93, 93, 255, 255, 93, 93, 255, 255, 93, 93, 255, 255, 255, 255, 0, 255, 93, 93, 255, 255, 94, 94, 127, 255, 255, 255, 0, 255, 255, 255, 0, 255, 255, 255, 0, 255, 255, 255, 0, 255, 255, 255, 0, 255, 255, 255, 0, 255, 93, 93, 255, 255, 93, 93, 255, 255, 93, 93, 255, 255, 93, 93, 255, 255, 93, 93, 255, 255, 93, 93, 255, 255, 93, 93, 255, 255, 255, 255, 0, 255, 93, 93, 255, 255, 93, 93, 255, 255, 94, 94, 127, 255, 255, 255, 0, 255, 255, 255, 0, 255, 255, 255, 0, 255, 255, 255, 0, 255, 255, 255, 0, 255, 93, 93, 255, 255, 93, 93, 255, 255, 93, 93, 255, 255, 93, 93, 255, 255, 93, 93, 255, 255, 93, 93, 255, 255, 93, 93, 255, 255, 255, 255, 0, 255, 93, 93, 255, 255, 93, 93, 255, 255, 93, 93, 255, 255, 94, 94, 127, 255, 255, 255, 0, 255, 255, 255, 0, 255, 255, 255, 0, 255, 255, 255, 0, 255, 93, 93, 255, 255, 93, 93, 255, 255, 93, 93, 255, 255, 93, 93, 255, 255, 93, 93, 255, 255, 93, 93, 255, 255, 93, 93, 255, 255, 255, 255, 0, 255, 255, 255, 0, 255, 255, 255, 0, 255, 255, 255, 0, 255, 255, 255, 0, 255, 255, 255, 0, 255, 255, 255, 0, 255, 255, 255, 0, 255, 255, 255, 0, 255, 93, 93, 255, 255, 93, 93, 255, 255, 93, 93, 255, 255, 93, 93, 255, 255, 93, 93, 255, 255, 93, 93, 255, 255, 93, 93, 255, 255, 93, 93, 255, 255, 93, 93, 255, 255, 93, 93, 255, 255, 93, 93, 255, 255, 93, 93, 255, 255, 255, 255, 0, 255, 255, 255, 0, 255, 255, 255, 0, 255, 255, 255, 0, 255, 93, 93, 255, 255, 93, 93, 255, 255, 93, 93, 255, 255, 93, 93, 255, 255, 93, 93, 255, 255, 93, 93, 255, 255, 93, 93, 255, 255, 93, 93, 255, 255, 93, 93, 255, 255, 93, 93, 255, 255, 93, 93, 255, 255, 93, 93, 255, 255, 255, 255, 0, 255, 255, 255, 0, 255, 255, 255, 0, 255, 255, 255, 0, 255, 93, 93, 231, 255, 94, 94, 54, 255, 94, 94, 57, 255, 93, 93, 233, 255, 93, 93, 255, 255, 93, 93, 255, 255, 93, 93, 231, 255, 94, 94, 54, 255, 94, 94, 57, 255, 93, 93, 233, 255, 93, 93, 255, 255, 93, 93, 255, 255, 255, 255, 0, 255, 255, 255, 0, 255, 255, 255, 0, 255, 255, 255, 0, 255, 97, 97, 42, 255, 255, 255, 0, 255, 255, 255, 0, 255, 97, 97, 42, 255, 93, 93, 233, 255, 93, 93, 232, 255, 93, 93, 41, 255, 255, 255, 0, 255, 255, 255, 0, 255, 97, 97, 42, 255, 93, 93, 233, 255, 93, 93, 232, 255, 255, 255, 0, 255, 255, 255, 0, 255, 255, 255, 0, 255, 255, 255, 0, 255, 255, 255, 0, 255, 96, 96, 45, 255, 93, 93, 44, 255, 255, 255, 0, 255, 97, 97, 42, 255, 97, 97, 42, 255, 255, 255, 0, 255, 96, 96, 45, 255, 93, 93, 44, 255, 255, 255, 0, 255, 97, 97, 42, 255, 97, 97, 42, 255, 255, 255, 0, 255, 255, 255, 0, 255, 255, 255, 0, 255, 255, 255, 0, 255, 96, 96, 45, 255, 93, 93, 235, 255, 94, 94, 234, 255, 95, 95, 43, 255, 255, 255, 0, 255, 255, 255, 0, 255, 96, 96, 45, 255, 93, 93, 235, 255, 94, 94, 234, 255, 95, 95, 43, 255, 255, 255, 0, 255, 255, 255, 0, 255, 255, 255, 0, 255, 255, 255, 0, 255, 255, 255, 0, 255, 255, 255, 0, 255, 93, 93, 235, 255, 93, 93, 255, 255, 93, 93, 255, 255, 93, 93, 233, 255, 95, 95, 59, 255, 96, 96, 61, 255, 93, 93, 235, 255, 93, 93, 255, 255, 93, 93, 255, 255, 93, 93, 233, 255, 95, 95, 59, 255, 96, 96, 61, 255, 255, 255, 0, 255, 255, 255, 0, 255, 255, 255, 0, 255, 255, 255, 0, 255, 93, 93, 255, 255, 93, 93, 255, 255, 93, 93, 255, 255, 93, 93, 255, 255, 93, 93, 255, 255, 93, 93, 255, 255, 93, 93, 255, 255, 93, 93, 255, 255, 93, 93, 255, 255, 93, 93, 255, 255, 93, 93, 255, 255, 93, 93, 255, 255, 255, 255, 0, 255, 255, 255, 0, 255, 255, 255, 0, 255, 255, 255, 0, 255, 93, 93, 255, 255, 93, 93, 255, 255, 93, 93, 255, 255, 93, 93, 255, 255, 93, 93, 255, 255, 93, 93, 255, 255, 93, 93, 255, 255, 93, 93, 255, 255, 93, 93, 255, 255, 93, 93, 255, 255, 93, 93, 255, 255, 93, 93, 255, 255, 255, 255, 0, 255, 255, 255, 0, 255, 255, 255, 0, 255, 255, 255, 0, 255, 255, 255, 0, 255, 255, 255, 0, 255, 255, 255, 0, 255, 255, 255, 0, 255, 255, 255, 0, 255, 255, 255, 0, 255, 255, 255, 0, 255, 255, 255, 0, 255, 255, 255, 0, 255, 255, 255, 0, 255, 255, 255, 0, 255, 255, 255, 0, 255, 255, 255, 0, 255, 255, 255, 0),
"format": "RGBA8",
"height": 16,
"mipmaps": false,
"width": 16
}

[sub_resource type="ImageTexture" id="ImageTexture_8ql2p"]
image = SubResource("Image_d81ob")

[sub_resource type="StyleBoxEmpty" id="StyleBoxEmpty_r14a7"]

[sub_resource type="StyleBoxEmpty" id="StyleBoxEmpty_oycca"]

[node name="Thing" type="GraphNode"]
offset_right = 176.0
offset_bottom = 294.0
size_flags_horizontal = 3
size_flags_vertical = 0
theme_override_styles/panel = SubResource("StyleBoxFlat_i88oe")
theme_override_styles/panel_selected = SubResource("StyleBoxFlat_a8vhd")
theme_override_styles/titlebar = SubResource("StyleBoxFlat_5mmtc")
theme_override_styles/titlebar_selected = SubResource("StyleBoxFlat_n53qd")
title = "title"
slot/0/left_enabled = true
slot/0/left_type = 0
slot/0/left_color = Color(0.768627, 0.768627, 0.768627, 1)
slot/0/left_icon = null
slot/0/right_enabled = true
slot/0/right_type = 0
slot/0/right_color = Color(1, 1, 1, 1)
slot/0/right_icon = null
slot/0/draw_stylebox = true
script = ExtResource("1_bxpwl")

[node name="topslot" type="MarginContainer" parent="."]
unique_name_in_owner = true
layout_mode = 2
size_flags_vertical = 0
theme_override_constants/margin_left = 6
theme_override_constants/margin_top = 5
theme_override_constants/margin_right = 6
theme_override_constants/margin_bottom = 8

[node name="layers" type="VBoxContainer" parent="topslot"]
unique_name_in_owner = true
layout_mode = 2
size_flags_vertical = 0

[node name="preview_and_info" type="VBoxContainer" parent="topslot/layers"]
unique_name_in_owner = true
layout_mode = 2
size_flags_vertical = 0

[node name="buttons" type="HBoxContainer" parent="topslot/layers/preview_and_info"]
unique_name_in_owner = true
layout_mode = 2
size_flags_vertical = 0

[node name="info" type="Button" parent="topslot/layers/preview_and_info/buttons"]
unique_name_in_owner = true
layout_mode = 2
size_flags_horizontal = 0
size_flags_vertical = 0
tooltip_text = "Show Node details"
mouse_filter = 1
icon = SubResource("ImageTexture_cb5as")

[node name="help" type="Button" parent="topslot/layers/preview_and_info/buttons"]
unique_name_in_owner = true
layout_mode = 2
size_flags_horizontal = 4
size_flags_vertical = 4
tooltip_text = "Help"
mouse_filter = 1
icon = SubResource("ImageTexture_cb5as")

[node name="showinfs" type="Button" parent="topslot/layers/preview_and_info/buttons"]
unique_name_in_owner = true
layout_mode = 2
size_flags_horizontal = 4
size_flags_vertical = 4
tooltip_text = "Show in FileSystem"
mouse_filter = 1
icon = SubResource("ImageTexture_cb5as")

[node name="editscript" type="Button" parent="topslot/layers/preview_and_info/buttons"]
unique_name_in_owner = true
custom_minimum_size = Vector2(16, 16)
layout_mode = 2
size_flags_horizontal = 4
size_flags_vertical = 4
size_flags_stretch_ratio = 12.0
tooltip_text = "Edit the code"
mouse_filter = 1
icon = SubResource("ImageTexture_cb5as")

[node name="refresh" type="Button" parent="topslot/layers/preview_and_info/buttons"]
unique_name_in_owner = true
layout_mode = 2
size_flags_horizontal = 4
size_flags_vertical = 0
tooltip_text = "Force an update. Useful when the node is not redrawing properly.

When altering a custom class, 
this will try to reload and show 
the new fields.

Best advice: save and restart often
when coding resources."
mouse_filter = 1
icon = SubResource("ImageTexture_cb5as")

[node name="min" type="Button" parent="topslot/layers/preview_and_info/buttons"]
unique_name_in_owner = true
visible = false
layout_mode = 2
size_flags_horizontal = 0
size_flags_vertical = 0
tooltip_text = "Rollup/down"
mouse_filter = 1
icon = SubResource("ImageTexture_8ql2p")

[node name="close" type="Button" parent="topslot/layers/preview_and_info/buttons"]
unique_name_in_owner = true
visible = false
layout_mode = 2
size_flags_horizontal = 0
size_flags_vertical = 0
tooltip_text = "Close"
mouse_filter = 1
icon = SubResource("ImageTexture_cb5as")

[node name="res_preview" type="TextureRect" parent="topslot/layers/preview_and_info"]
unique_name_in_owner = true
custom_minimum_size = Vector2(64, 64)
layout_mode = 2
size_flags_vertical = 3
texture = ExtResource("2_fjfpw")
stretch_mode = 5

[node name="icon_and_classname" type="HBoxContainer" parent="topslot/layers/preview_and_info"]
unique_name_in_owner = true
layout_mode = 2
size_flags_horizontal = 4
size_flags_vertical = 0

[node name="icon" type="TextureRect" parent="topslot/layers/preview_and_info/icon_and_classname"]
unique_name_in_owner = true
custom_minimum_size = Vector2(32, 32)
layout_mode = 2
size_flags_horizontal = 0
size_flags_vertical = 0
expand_mode = 2
stretch_mode = 4

[node name="VBoxContainer" type="VBoxContainer" parent="topslot/layers/preview_and_info/icon_and_classname"]
layout_mode = 2
theme_override_constants/separation = -6

[node name="classname" type="RichTextLabel" parent="topslot/layers/preview_and_info/icon_and_classname/VBoxContainer"]
unique_name_in_owner = true
custom_minimum_size = Vector2(0, 16)
layout_mode = 2
size_flags_horizontal = 3
size_flags_vertical = 4
size_flags_stretch_ratio = 0.0
mouse_filter = 1
theme_override_colors/font_shadow_color = Color(0, 0, 0, 0.2)
theme_override_constants/shadow_offset_y = 2
theme_override_constants/shadow_offset_x = 2
theme_override_font_sizes/normal_font_size = 17
theme_override_styles/focus = SubResource("StyleBoxEmpty_r14a7")
theme_override_styles/normal = SubResource("StyleBoxEmpty_oycca")
text = "Label"
fit_content = true
scroll_active = false
autowrap_mode = 0
shortcut_keys_enabled = false
meta_underlined = false
hint_underlined = false
deselect_on_focus_loss_enabled = false
drag_and_drop_selection_enabled = false

[node name="resname" type="RichTextLabel" parent="topslot/layers/preview_and_info/icon_and_classname/VBoxContainer"]
unique_name_in_owner = true
custom_minimum_size = Vector2(0, 16)
layout_mode = 2
size_flags_horizontal = 3
size_flags_vertical = 4
size_flags_stretch_ratio = 0.0
mouse_filter = 1
theme_override_colors/font_shadow_color = Color(0, 0, 0, 0.2)
theme_override_constants/shadow_offset_y = 2
theme_override_constants/shadow_offset_x = 2
theme_override_font_sizes/normal_font_size = 17
theme_override_styles/focus = SubResource("StyleBoxEmpty_r14a7")
theme_override_styles/normal = SubResource("StyleBoxEmpty_oycca")
text = "Label"
fit_content = true
scroll_active = false
autowrap_mode = 0
shortcut_keys_enabled = false
meta_underlined = false
hint_underlined = false
deselect_on_focus_loss_enabled = false
drag_and_drop_selection_enabled = false

[node name="deets" type="VBoxContainer" parent="topslot/layers"]
unique_name_in_owner = true
layout_mode = 2
size_flags_vertical = 0

[node name="details" type="ItemList" parent="topslot/layers/deets"]
unique_name_in_owner = true
clip_contents = false
layout_mode = 2
size_flags_horizontal = 3
size_flags_vertical = 0
mouse_filter = 2
allow_search = false
auto_height = true
item_count = 1
same_column_width = true
item_0/text = "icon text"
item_0/selectable = false

[node name="comment_text" type="TextEdit" parent="topslot/layers/deets"]
unique_name_in_owner = true
custom_minimum_size = Vector2(0, 64)
layout_mode = 2
size_flags_vertical = 0
placeholder_text = "Comments"
context_menu_enabled = false
wrap_mode = 1

[connection signal="dragged" from="." to="." method="_on_dragged"]
[connection signal="gui_input" from="." to="." method="_on_gui_input"]
[connection signal="pressed" from="@HBoxContainer@17923/close" to="." method="_on_close_pressed"]
[connection signal="pressed" from="@HBoxContainer@17923/min" to="." method="_on_min_pressed"]
[connection signal="pressed" from="topslot/layers/preview_and_info/buttons/info" to="." method="_on_info_pressed"]
[connection signal="pressed" from="topslot/layers/preview_and_info/buttons/help" to="." method="_on_help_pressed"]
[connection signal="pressed" from="topslot/layers/preview_and_info/buttons/showinfs" to="." method="_on_showinfs_pressed"]
[connection signal="pressed" from="topslot/layers/preview_and_info/buttons/editscript" to="." method="_on_editscript_pressed"]
[connection signal="pressed" from="topslot/layers/preview_and_info/buttons/refresh" to="." method="_on_refresh_pressed"]
[connection signal="pressed" from="topslot/layers/preview_and_info/buttons/min" to="." method="_on_min_pressed"]
[connection signal="pressed" from="topslot/layers/preview_and_info/buttons/close" to="." method="_on_close_pressed"]
