[gd_resource type="Resource" script_class="rwtexColor" load_steps=2 format=3 uid="uid://mmh3ocm33vam"]

[ext_resource type="Script" path="res://addons/resource_wrangler/src/nodes/image_texture/memory/color.gd" id="1_3qpty"]

[resource]
script = ExtResource("1_3qpty")
color = Color(0.100159, 0.359375, 0.0793301, 1)
width = 64
height = 64
