[gd_resource type="Resource" script_class="rwtexColor" load_steps=2 format=3 uid="uid://lfjkmdlloq18"]

[ext_resource type="Script" path="res://addons/resource_wrangler/src/nodes/image_texture/memory/color.gd" id="1_73c4y"]

[resource]
script = ExtResource("1_73c4y")
color = Color(0.886275, 0.835294, 0.34902, 0)
width = 1
height = 1
