[gd_resource type="Resource" script_class="rwtexMix" load_steps=5 format=3 uid="uid://dsgucyqoknr3u"]

[ext_resource type="FastNoiseLite" uid="uid://di6cwrg7iixm7" path="res://addons/resource_wrangler/docs/demos/resources/FastNoiseLite_68f0ff028f.tres" id="1_2pbd2"]
[ext_resource type="Script" path="res://addons/resource_wrangler/src/nodes/image_texture/memory/mix.gd" id="2_fwnkh"]
[ext_resource type="Resource" uid="uid://b0a52yv0rfybt" path="res://addons/resource_wrangler/docs/demos/resources/rwtexBCS_cb2daac39a.tres" id="3_0kivo"]
[ext_resource type="Resource" uid="uid://cl8o36i42ktxo" path="res://addons/resource_wrangler/docs/demos/resources/rwtexBCS_e7967d2e22.tres" id="4_i2kxo"]

[resource]
script = ExtResource("2_fwnkh")
texture1 = ExtResource("3_0kivo")
texture2 = ExtResource("4_i2kxo")
fac = ExtResource("1_2pbd2")
