[gd_resource type="Resource" script_class="rwtexMix" load_steps=4 format=3 uid="uid://ck1ll82jtex3l"]

[ext_resource type="Script" path="res://addons/resource_wrangler/src/nodes/image_texture/memory/mix.gd" id="1_cb153"]
[ext_resource type="Texture2D" uid="uid://elca58e8o6if" path="res://addons/resource_wrangler/docs/demos/resources/GradientTexture2D_b8497dbc5c.tres" id="2_4gsw4"]
[ext_resource type="FastNoiseLite" uid="uid://cotxrfyrb0aqh" path="res://addons/resource_wrangler/docs/demos/resources/FastNoiseLite_b654eb5166.tres" id="3_ev0j7"]

[resource]
script = ExtResource("1_cb153")
texture1 = ExtResource("2_4gsw4")
texture2 = ExtResource("3_ev0j7")
